15,202,590,590,14,1
14,47,670,670,32,2
13,271,720,720,46,3
12,410,840,840,1,4
11,196,920,920,3,5
10,462,2440,2440,165,6
9,1845,2460,2460,51,7
8,802,3490,3490,126,8
7,1878,3520,3520,69,9
6,2475,3750,3750,45,10
5,414,3820,3820,32,11
4,3720,4320,4320,6,12
3,1835,4370,4370,196,13
2,3056,4630,4630,207,14
1,2496,4700,4700,46,15
15,335,570,570,7,1
14,154,660,660,25,2
13,1088,1330,1330,9,3
12,348,1510,1510,54,4
11,1566,1730,1730,16,5
10,898,2440,2440,98,6
9,1759,2520,2520,103,7
8,2363,2760,2760,205,8
7,1902,2890,2890,1,9
6,1147,3220,3220,77,10
5,158,3620,3620,206,11
4,2684,4340,4340,119,12
3,4425,4580,4580,55,13
2,465,4630,4630,31,14
1,2328,4840,4840,100,15
15,1115,1600,1600,50,1
14,814,1820,1820,24,2
13,1035,2150,2150,12,3
12,830,2590,2590,1,4
11,450,2600,2600,45,5
10,1943,2690,2690,92,6
9,1925,2740,2740,26,7
8,712,2840,2840,186,8
7,3199,3250,3250,412,9
6,298,3490,3490,14,10
5,1579,3770,3770,14,11
4,3728,3910,3910,3,12
3,2242,3970,3970,337,13
2,645,4470,4470,8,14
1,231,4950,4950,40,15
15,87,670,670,31,1
14,944,1050,1050,5,2
13,1081,1130,1130,4,3
12,1195,1280,1280,61,4
11,347,1410,1410,5,5
10,783,1590,1590,51,6
9,643,1950,1950,60,7
8,11,2350,2350,72,8
7,630,2680,2680,121,9
6,1278,2690,2690,83,10
5,2785,2880,2880,125,11
4,1825,3280,3280,25,12
3,2421,4110,4110,198,13
2,1639,4610,4610,28,14
1,2346,4690,4690,113,15
15,68,580,580,13,1
14,711,780,780,15,2
13,597,880,880,3,3
12,514,1070,1070,3,4
11,517,1970,1970,51,5
10,2031,2160,2160,48,6
9,2204,2420,2420,98,7
8,2028,2580,2580,189,8
7,312,2960,2960,8,9
6,2425,2990,2990,119,10
5,2854,3000,3000,58,11
4,1053,3180,3180,267,12
3,1095,3370,3370,82,13
2,3291,3640,3640,85,14
1,3628,4830,4830,11,15
15,307,560,560,29,1
14,364,760,760,13,2
13,846,1370,1370,20,3
12,737,1720,1720,63,4
11,425,1970,1970,15,5
10,713,2900,2900,47,6
9,796,3220,3220,25,7
8,2278,3420,3420,195,8
7,402,3530,3530,36,9
6,2654,3560,3560,25,10
5,2174,3990,3990,3,11
4,456,4530,4530,330,12
3,1147,4710,4710,9,13
2,4040,4720,4720,43,14
1,2319,4900,4900,464,15
15,173,560,560,10,1
14,367,720,720,14,2
13,277,730,730,38,3
12,65,800,800,14,4
11,124,1490,1490,8,5
10,72,1730,1730,199,6
9,1393,2420,2420,91,7
8,1888,3380,3380,12,8
7,3509,3580,3580,27,9
6,481,3910,3910,72,10
5,2624,4300,4300,347,11
4,1039,4690,4690,92,12
3,2414,4720,4720,3,13
2,836,4800,4800,4,14
1,3939,4830,4830,41,15
15,504,630,630,3,1
14,816,900,900,15,2
13,380,960,960,74,3
12,971,1310,1310,9,4
11,375,1540,1540,59,5
10,1582,1660,1660,61,6
9,1679,1900,1900,55,7
8,24,3730,3730,4,8
7,602,3810,3810,106,9
6,244,3980,3980,159,10
5,2445,4090,4090,3,11
4,537,4200,4200,215,12
3,2796,4340,4340,104,13
2,4326,4560,4560,195,14
1,2943,4570,4570,44,15
15,375,530,530,3,1
14,36,1120,1120,52,2
13,218,1270,1270,52,3
12,681,1290,1290,71,4
11,1370,1890,1890,7,5
10,1136,2070,2070,88,6
9,1026,2390,2390,71,7
8,2153,2860,2860,51,8
7,681,2970,2970,8,9
6,2985,3510,3510,129,10
5,2299,3630,3630,39,11
4,3844,4270,4270,29,12
3,173,4320,4320,236,13
2,423,4400,4400,80,14
1,547,4930,4930,166,15
15,617,830,830,11,1
14,468,840,840,3,2
13,434,940,940,12,3
12,919,1260,1260,7,4
11,1059,1560,1560,11,5
10,204,1600,1600,18,6
9,368,1630,1630,136,7
8,279,1940,1940,42,8
7,1479,2010,2010,77,9
6,872,2090,2090,38,10
5,1026,2450,2450,153,11
4,971,2950,2950,198,12
3,914,3110,3110,29,13
2,3641,3690,3690,14,14
1,4529,4860,4860,232,15
15,98,520,520,10,1
14,857,1630,1630,13,2
13,783,1710,1710,36,3
12,930,1730,1730,7,4
11,108,1920,1920,108,5
10,602,2450,2450,78,6
9,1306,2860,2860,24,7
8,2924,3050,3050,308,8
7,880,3120,3120,85,9
6,2039,4090,4090,105,10
5,733,4350,4350,85,11
4,2385,4610,4610,200,12
3,2278,4900,4900,28,13
2,1864,4910,4910,50,14
1,2154,4940,4940,121,15
15,1307,1350,1350,60,1
14,207,1380,1380,10,2
13,822,1430,1430,48,3
12,1475,1510,1510,11,4
11,669,1530,1530,10,5
10,4,1590,1590,211,6
9,39,1610,1610,6,7
8,244,2250,2250,77,8
7,67,2870,2870,37,9
6,2378,3290,3290,53,10
5,2672,3410,3410,137,11
4,2410,3700,3700,6,12
3,3659,3850,3850,103,13
2,2146,4080,4080,101,14
1,3690,4540,4540,66,15
15,266,1350,1350,37,1
14,305,1580,1580,72,2
13,2028,2640,2640,30,3
12,981,2820,2820,5,4
11,910,3050,3050,131,5
10,1861,3240,3240,121,6
9,1855,3290,3290,61,7
8,899,3500,3500,71,8
7,906,3580,3580,1,9
6,3535,4060,4060,123,10
5,1531,4070,4070,119,11
4,2975,4230,4230,141,12
3,1588,4320,4320,7,13
2,2630,4430,4430,433,14
1,4519,4840,4840,49,15
15,178,680,680,2,1
14,652,1170,1170,5,2
13,1065,1320,1320,17,3
12,1236,1720,1720,96,4
11,334,1950,1950,25,5
10,62,2600,2600,7,6
9,1877,2730,2730,20,7
8,885,2990,2990,154,8
7,2452,3340,3340,5,9
6,3399,3530,3530,361,10
5,982,3690,3690,29,11
4,2600,3810,3810,117,12
3,668,4050,4050,23,13
2,2284,4100,4100,263,14
1,2544,4240,4240,185,15
15,63,660,660,27,1
14,214,780,780,15,2
13,398,1070,1070,6,3
12,992,2000,2000,18,4
11,1280,2090,2090,167,5
10,1925,2160,2160,114,6
9,1969,2200,2200,17,7
8,666,2630,2630,159,8
7,1188,2660,2660,99,9
6,389,3400,3400,24,10
5,758,3450,3450,37,11
4,109,3640,3640,203,12
3,3873,4140,4140,35,13
2,1879,4270,4270,18,14
1,3445,4640,4640,33,15
15,734,820,820,83,1
14,736,1460,1460,2,2
13,566,1510,1510,140,3
12,801,1590,1590,15,4
11,1357,2020,2020,36,5
10,169,2060,2060,20,6
9,341,2990,2990,24,7
8,3140,3190,3190,37,8
7,346,3950,3950,163,9
6,3888,3990,3990,203,10
5,3967,4050,4050,73,11
4,417,4260,4260,43,12
3,1898,4570,4570,7,13
2,428,4600,4600,7,14
1,2787,4860,4860,153,15
15,375,710,710,4,1
14,512,880,880,9,2
13,639,1180,1180,15,3
12,483,1190,1190,8,4
11,564,1630,1630,60,5
10,338,1920,1920,31,6
9,388,2160,2160,45,7
8,2319,2330,2330,177,8
7,1762,2750,2750,10,9
6,1255,2770,2770,78,10
5,351,3020,3020,116,11
4,2605,3120,3120,186,12
3,1098,3200,3200,87,13
2,344,4680,4680,16,14
1,4338,4690,4690,285,15
15,305,590,590,17,1
14,163,620,620,5,2
13,351,1370,1370,10,3
12,855,1500,1500,10,4
11,398,1630,1630,74,5
10,235,1670,1670,111,6
9,461,1720,1720,21,7
8,563,1970,1970,55,8
7,1968,2760,2760,122,9
6,2866,3170,3170,12,10
5,154,3570,3570,367,11
4,3163,3790,3790,54,12
3,865,4050,4050,97,13
2,273,4200,4200,2,14
1,3904,4280,4280,55,15
15,252,1020,1020,8,1
14,161,1250,1250,20,2
13,841,1390,1390,62,3
12,820,1440,1440,6,4
11,788,1590,1590,43,5
10,1059,1780,1780,81,6
9,1834,2100,2100,22,7
8,1530,2330,2330,159,8
7,242,2630,2630,23,9
6,856,2960,2960,47,10
5,2788,3220,3220,20,11
4,892,3380,3380,13,12
3,866,3710,3710,138,13
2,1939,4040,4040,332,14
1,839,4450,4450,125,15
15,429,780,780,7,1
14,854,1210,1210,65,2
13,189,1880,1880,72,3
12,1853,2050,2050,19,4
11,279,2110,2110,60,5
10,2340,2380,2380,92,6
9,2231,2510,2510,59,7
8,1026,2690,2690,21,8
7,46,3250,3250,181,9
6,1258,3490,3490,29,10
5,1816,3850,3850,30,11
4,3232,4060,4060,89,12
3,3952,4360,4360,251,13
2,17,4420,4420,155,14
1,728,4980,4980,62,15
15,1052,1530,1530,37,1
14,2000,2330,2330,54,2
13,2164,2680,2680,99,3
12,1091,2700,2700,129,4
11,752,2970,2970,10,5
10,2105,3360,3360,26,6
9,2107,3420,3420,301,7
8,2401,3430,3430,142,8
7,315,3480,3480,87,9
6,2018,3650,3650,81,10
5,3661,3700,3700,135,11
4,531,3730,3730,30,12
3,1460,4200,4200,113,13
2,1918,4830,4830,1,14
1,11,4900,4900,77,15
15,209,760,760,26,1
14,1325,1400,1400,26,2
13,639,1550,1550,31,3
12,1077,1620,1620,48,4
11,1644,1680,1680,26,5
10,87,1780,1780,15,6
9,180,2440,2440,140,7
8,1906,2790,2790,78,8
7,1280,3620,3620,197,9
6,2198,3930,3930,162,10
5,659,4380,4380,76,11
4,3578,4390,4390,1,12
3,2040,4580,4580,346,13
2,3211,4630,4630,23,14
1,1266,4750,4750,6,15
15,29,830,830,1,1
14,769,860,860,44,2
13,1810,1820,1820,228,3
12,1862,2290,2290,10,4
11,1495,2430,2430,16,5
10,749,2860,2860,35,6
9,1996,2980,2980,12,7
8,1814,3160,3160,5,8
7,1279,3440,3440,66,9
6,1176,3850,3850,2,10
5,3021,3990,3990,107,11
4,1483,4030,4030,141,12
3,3722,4360,4360,109,13
2,1103,4600,4600,208,14
1,1537,4800,4800,231,15
15,224,510,510,10,1
14,57,770,770,10,2
13,667,1410,1410,59,3
12,456,1450,1450,46,4
11,1466,1530,1530,9,5
10,244,1830,1830,112,6
9,130,1870,1870,11,7
8,565,2240,2240,50,8
7,1416,2900,2900,163,9
6,3099,3400,3400,79,10
5,3690,3730,3730,1,11
4,1962,3970,3970,258,12
3,2773,4100,4100,64,13
2,183,4230,4230,80,14
1,1590,4590,4590,121,15
15,332,1230,1230,130,1
14,514,1270,1270,37,2
13,983,1500,1500,64,3
12,237,1530,1530,10,4
11,1787,2110,2110,2,5
10,1621,2380,2380,27,6
9,1937,2560,2560,66,7
8,2457,3060,3060,101,8
7,941,3240,3240,3,9
6,882,3640,3640,199,10
5,2661,3770,3770,11,11
4,2300,4000,4000,16,12
3,777,4010,4010,98,13
2,3569,4150,4150,131,14
1,2496,4350,4350,144,15
15,687,1140,1140,12,1
14,9,1750,1750,29,2
13,1884,2090,2090,77,3
12,147,2270,2270,3,4
11,2506,2890,2890,195,5
10,1720,3160,3160,95,6
9,2206,3460,3460,149,7
8,2652,3730,3730,142,8
7,463,3860,3860,81,9
6,3594,3970,3970,230,10
5,1816,4080,4080,5,11
4,2121,4200,4200,182,12
3,2272,4410,4410,42,13
2,4600,4910,4910,65,14
1,2850,4970,4970,85,15
15,267,930,930,29,1
14,170,1040,1040,37,2
13,1233,1280,1280,18,3
12,1225,1560,1560,6,4
11,1840,1870,1870,108,5
10,669,2410,2410,66,6
9,1746,2530,2530,44,7
8,1751,2810,2810,41,8
7,1812,3390,3390,183,9
6,552,3420,3420,187,10
5,524,3440,3440,3,11
4,1656,3670,3670,36,12
3,3507,3990,3990,263,13
2,3249,4020,4020,69,14
1,2728,4980,4980,15,15
15,705,1260,1260,29,1
14,1068,1340,1340,41,2
13,1430,1640,1640,63,3
12,264,1660,1660,20,4
11,1368,1780,1780,123,5
10,1373,1890,1890,47,6
9,1144,1910,1910,109,7
8,46,1980,1980,17,8
7,1810,2170,2170,55,9
6,2002,2240,2240,1,10
5,2062,2620,2620,2,11
4,1285,2700,2700,61,12
3,1330,3220,3220,67,13
2,1669,3530,3530,192,14
1,127,3970,3970,77,15
15,88,540,540,2,1
14,925,1000,1000,23,2
13,181,1360,1360,7,3
12,1154,1500,1500,78,4
11,387,1890,1890,18,5
10,486,2150,2150,13,6
9,977,3740,3740,160,7
8,2414,3750,3750,331,8
7,3537,4120,4120,40,9
6,431,4310,4310,207,10
5,1543,4330,4330,109,11
4,773,4540,4540,118,12
3,1983,4610,4610,89,13
2,217,4710,4710,64,14
1,3413,4960,4960,170,15
15,29,530,530,10,1
14,380,740,740,2,2
13,859,1410,1410,124,3
12,151,1480,1480,8,4
11,677,1490,1490,15,5
10,769,1590,1590,40,6
9,1754,1760,1760,13,7
8,881,1870,1870,145,8
7,700,2300,2300,30,9
6,2476,3010,3010,5,10
5,3182,3490,3490,6,11
4,3289,3560,3560,217,12
3,1124,3870,3870,309,13
2,2745,4230,4230,17,14
1,482,4730,4730,41,15
15,90,840,840,2,1
14,419,1420,1420,107,2
13,451,1540,1540,28,3
12,217,1610,1610,40,4
11,464,2720,2720,145,5
10,482,2800,2800,78,6
9,2394,2940,2940,17,7
8,257,3210,3210,115,8
7,3179,3940,3940,111,9
6,3933,4000,4000,98,10
5,45,4480,4480,30,11
4,1137,4540,4540,48,12
3,3401,4680,4680,1,13
2,3263,4740,4740,414,14
1,2040,4960,4960,26,15
15,373,590,590,19,1
14,401,1010,1010,1,2
13,845,1910,1910,26,3
12,281,2040,2040,112,4
11,1774,2070,2070,11,5
10,1106,2300,2300,54,6
9,1164,2740,2740,130,7
8,2465,2770,2770,74,8
7,2612,3080,3080,32,9
6,1179,4000,4000,104,10
5,1026,4070,4070,290,11
4,1375,4180,4180,25,12
3,1842,4200,4200,259,13
2,401,4630,4630,13,14
1,4476,4860,4860,120,15
15,327,1130,1130,4,1
14,35,1180,1180,75,2
13,346,1580,1580,77,3
12,1525,1740,1740,32,4
11,690,1920,1920,2,5
10,1738,2060,2060,88,6
9,385,2920,2920,28,7
8,1622,3160,3160,96,8
7,1640,3810,3810,15,9
6,3174,3830,3830,359,10
5,1716,4180,4180,46,11
4,48,4210,4210,151,12
3,825,4560,4560,63,13
2,1719,4830,4830,18,14
1,3382,4970,4970,134,15
15,251,540,540,3,1
14,823,1100,1100,45,2
13,202,1220,1220,10,3
12,90,1260,1260,27,4
11,429,1340,1340,54,5
10,649,1550,1550,67,6
9,33,1570,1570,60,7
8,1078,1740,1740,7,8
7,717,2070,2070,24,9
6,1405,2760,2760,35,10
5,1174,3100,3100,229,11
4,2468,3170,3170,59,12
3,641,3280,3280,114,13
2,4128,4170,4170,187,14
1,4069,4490,4490,28,15
15,301,810,810,3,1
14,170,1180,1180,75,2
13,562,1220,1220,13,3
12,652,1240,1240,9,4
11,1053,1580,1580,21,5
10,460,1650,1650,4,6
9,1604,2110,2110,15,7
8,1676,2280,2280,60,8
7,1826,2810,2810,15,9
6,2124,3270,3270,136,10
5,3745,4060,4060,358,11
4,3699,4070,4070,152,12
3,1719,4160,4160,255,13
2,2119,4510,4510,79,14
1,2670,4900,4900,101,15
15,443,570,570,7,1
14,1115,1380,1380,43,2
13,320,1500,1500,46,3
12,1074,2790,2790,3,4
11,1761,2980,2980,63,5
10,1141,3000,3000,96,6
9,2028,3400,3400,39,7
8,2790,3490,3490,198,8
7,1157,3500,3500,103,9
6,2653,3550,3550,71,10
5,2604,3590,3590,198,11
4,3297,3750,3750,86,12
3,4300,4350,4350,22,13
2,1352,4800,4800,355,14
1,2519,4940,4940,13,15
15,616,660,660,3,1
14,63,750,750,12,2
13,784,1040,1040,14,3
12,285,1130,1130,47,4
11,1080,1470,1470,70,5
10,2404,2650,2650,157,6
9,437,2740,2740,41,7
8,1567,3000,3000,44,8
7,2506,3010,3010,28,9
6,2685,3760,3760,138,10
5,1376,3820,3820,17,11
4,229,3960,3960,177,12
3,2424,4230,4230,18,13
2,78,4350,4350,8,14
1,901,4980,4980,460,15
15,189,530,530,4,1
14,155,770,770,32,2
13,51,980,980,112,3
12,697,1120,1120,10,4
11,1093,1350,1350,1,5
10,727,1740,1740,11,6
9,839,2410,2410,54,7
8,509,2540,2540,5,8
7,2226,4320,4320,288,9
6,1010,4360,4360,154,10
5,288,4520,4520,173,11
4,704,4610,4610,17,12
3,2724,4660,4660,128,13
2,1969,4860,4860,129,14
1,918,4870,4870,13,15
15,149,870,870,33,1
14,89,920,920,6,2
13,259,1090,1090,36,3
12,94,1750,1750,43,4
11,1935,1970,1970,30,5
10,1783,2040,2040,2,6
9,2119,2230,2230,43,7
8,1208,2650,2650,55,8
7,442,3120,3120,147,9
6,454,3500,3500,33,10
5,1789,3860,3860,50,11
4,2374,3930,3930,244,12
3,176,4500,4500,129,13
2,907,4710,4710,352,14
1,2797,4920,4920,70,15
15,795,920,920,1,1
14,971,1050,1050,4,2
13,29,1460,1460,216,3
12,826,1520,1520,10,4
11,667,2420,2420,194,5
10,1174,2740,2740,14,6
9,895,2830,2830,48,7
8,197,2930,2930,1,8
7,39,3000,3000,25,9
6,1153,3590,3590,11,10
5,437,3610,3610,38,11
4,401,3960,3960,205,12
3,3445,4480,4480,32,13
2,3244,4610,4610,133,14
1,3485,4860,4860,176,15
15,55,550,550,31,1
14,70,1400,1400,13,2
13,384,1570,1570,41,3
12,917,1740,1740,42,4
11,1758,1760,1760,44,5
10,811,2010,2010,14,6
9,967,2040,2040,221,7
8,1726,2830,2830,69,8
7,1688,3190,3190,8,9
6,1481,3850,3850,34,10
5,1829,3940,3940,175,11
4,8,4400,4400,71,12
3,1282,4540,4540,74,13
2,3226,4550,4550,145,14
1,2297,4720,4720,24,15
15,1070,1470,1470,23,1
14,1612,1820,1820,27,2
13,1328,2180,2180,69,3
12,560,2310,2310,10,4
11,912,2420,2420,90,5
10,2277,2950,2950,26,6
9,816,3040,3040,18,7
8,944,3200,3200,4,8
7,1563,3400,3400,141,9
6,2479,3580,3580,143,10
5,2105,3740,3740,111,11
4,2545,4290,4290,282,12
3,2937,4480,4480,89,13
2,4274,4560,4560,61,14
1,1410,4620,4620,360,15
15,21,550,550,21,1
14,278,650,650,9,2
13,375,1100,1100,63,3
12,368,1130,1130,31,4
11,1537,1960,1960,61,5
10,1512,2370,2370,16,6
9,1088,2560,2560,3,7
8,1006,2580,2580,76,8
7,318,2590,2590,6,9
6,820,3040,3040,5,10
5,3258,3280,3280,150,11
4,3291,3480,3480,297,12
3,1792,4310,4310,120,13
2,3230,4520,4520,97,14
1,1850,4610,4610,65,15
15,846,850,850,23,1
14,563,1040,1040,13,2
13,1062,1380,1380,42,3
12,149,1870,1870,56,4
11,1530,1990,1990,178,5
10,1102,2030,2030,9,6
9,1617,2340,2340,22,7
8,370,2610,2610,78,8
7,128,2950,2950,11,9
6,3056,3080,3080,39,10
5,2601,3460,3460,154,11
4,3032,3500,3500,14,12
3,4102,4160,4160,91,13
2,449,4770,4770,85,14
1,3136,4850,4850,334,15
15,405,700,700,17,1
14,157,810,810,27,2
13,374,1000,1000,59,3
12,798,1020,1020,42,4
11,908,1070,1070,31,5
10,867,1410,1410,29,6
9,1694,2380,2380,69,7
8,2235,2570,2570,103,8
7,1922,2910,2910,111,9
6,957,3180,3180,14,10
5,2953,3490,3490,6,11
4,1265,3580,3580,29,12
3,3265,4220,4220,4,13
2,4467,4510,4510,28,14
1,2813,4680,4680,338,15
15,752,1090,1090,56,1
14,661,1270,1270,2,2
13,486,1390,1390,47,3
12,1022,1540,1540,47,4
11,196,1560,1560,48,5
10,981,1760,1760,22,6
9,595,1960,1960,106,7
8,446,2100,2100,42,8
7,1622,2350,2350,88,9
6,2798,3760,3760,57,10
5,3449,4000,4000,262,11
4,2621,4450,4450,10,12
3,4076,4600,4600,58,13
2,4241,4630,4630,156,14
1,220,4690,4690,25,15
15,67,640,640,7,1
14,188,870,870,48,2
13,1257,1370,1370,1,3
12,848,1420,1420,50,4
11,1138,2050,2050,11,5
10,31,2360,2360,101,6
9,2332,2430,2430,47,7
8,1222,3200,3200,95,8
7,1377,3270,3270,68,9
6,3815,3880,3880,58,10
5,925,4100,4100,200,11
4,3970,4110,4110,83,12
3,2290,4370,4370,104,13
2,489,4820,4820,312,14
1,2001,4950,4950,71,15
15,795,1130,1130,17,1
14,828,1140,1140,72,2
13,60,1250,1250,36,3
12,538,1920,1920,80,4
11,1072,2200,2200,58,5
10,595,2240,2240,104,6
9,1767,2420,2420,4,7
8,1325,2850,2850,81,8
7,2389,2910,2910,71,9
6,1302,3280,3280,114,10
5,2835,3330,3330,58,11
4,486,3340,3340,21,12
3,3259,3820,3820,39,13
2,3770,4070,4070,241,14
1,223,4710,4710,14,15
15,23,560,560,7,1
14,385,820,820,29,2
13,908,1050,1050,37,3
12,477,1770,1770,29,4
11,1782,1910,1910,37,5
10,2126,2530,2530,273,6
9,579,2570,2570,89,7
8,2437,3300,3300,33,8
7,235,3520,3520,79,9
6,338,3540,3540,176,10
5,2312,3650,3650,5,11
4,2180,3690,3690,59,12
3,3611,4530,4530,7,13
2,1776,4860,4860,174,14
1,701,4870,4870,36,15
15,116,800,800,40,1
14,987,1090,1090,12,2
13,1109,1120,1120,39,3
12,782,1230,1230,35,4
11,309,1540,1540,9,5
10,1517,1630,1630,111,6
9,1927,2110,2110,10,7
8,22,2430,2430,85,8
7,636,3150,3150,33,9
6,2409,3760,3760,249,10
5,2027,4030,4030,11,11
4,1783,4150,4150,84,12
3,3256,4390,4390,50,13
2,1489,4420,4420,50,14
1,2760,4430,4430,206,15
15,1302,1420,1420,61,1
14,676,1490,1490,40,2
13,51,1660,1660,95,3
12,1893,2230,2230,74,4
11,1328,2350,2350,2,5
10,2800,2850,2850,34,6
9,2439,3330,3330,1,7
8,1097,3340,3340,58,8
7,2524,3680,3680,167,9
6,1390,4240,4240,113,10
5,2258,4410,4410,80,11
4,2142,4430,4430,16,12
3,492,4460,4460,90,13
2,3897,4590,4590,260,14
1,3794,4610,4610,213,15
15,466,530,530,4,1
14,54,540,540,31,2
13,376,670,670,7,3
12,118,710,710,2,4
11,43,850,850,38,5
10,905,960,960,33,6
9,619,1050,1050,99,7
8,669,1070,1070,17,8
7,677,1710,1710,9,9
6,746,1740,1740,38,10
5,423,2130,2130,46,11
4,717,2580,2580,46,12
3,1077,3590,3590,52,13
2,293,4350,4350,50,14
1,2247,4430,4430,194,15
15,608,850,850,23,1
14,278,1060,1060,12,2
13,1073,1220,1220,23,3
12,637,1760,1760,32,4
11,30,1790,1790,7,5
10,2207,2670,2670,2,6
9,642,3240,3240,91,7
8,1170,3430,3430,20,8
7,3808,3830,3830,458,9
6,2155,3900,3900,139,10
5,2826,3940,3940,26,11
4,979,4650,4650,153,12
3,1256,4680,4680,327,13
2,4068,4810,4810,91,14
1,4143,4920,4920,43,15
15,809,1040,1040,29,1
14,833,1880,1880,29,2
13,1267,2130,2130,20,3
12,2101,2280,2280,25,4
11,779,2380,2380,13,5
10,2152,2590,2590,193,6
9,1869,2950,2950,124,7
8,431,3290,3290,74,8
7,391,3460,3460,231,9
6,42,3640,3640,150,10
5,877,4300,4300,86,11
4,2538,4490,4490,61,12
3,1427,4580,4580,102,13
2,2448,4870,4870,3,14
1,2135,4880,4880,170,15
15,265,600,600,31,1
14,60,660,660,4,2
13,506,1060,1060,88,3
12,392,2570,2570,6,4
11,2661,2750,2750,192,5
10,2609,2920,2920,169,6
9,2327,3280,3280,6,7
8,1356,3470,3470,62,8
7,841,3480,3480,17,9
6,3255,3490,3490,165,10
5,855,3540,3540,78,11
4,2487,3970,3970,152,12
3,3820,4070,4070,1,13
2,888,4260,4260,1,14
1,1562,4970,4970,14,15
15,412,600,600,5,1
14,691,810,810,43,2
13,1278,1580,1580,26,3
12,1098,1800,1800,43,4
11,909,1810,1810,13,5
10,676,1940,1940,70,6
9,1907,1960,1960,22,7
8,973,2000,2000,130,8
7,1530,2160,2160,12,9
6,1269,2610,2610,82,10
5,146,2690,2690,181,11
4,1135,3290,3290,54,12
3,263,3630,3630,136,13
2,3056,4220,4220,73,14
1,4450,4790,4790,52,15
15,4,800,800,37,1
14,900,980,980,1,2
13,395,1060,1060,57,3
12,724,1450,1450,17,4
11,141,2160,2160,43,5
10,558,2180,2180,80,6
9,1933,2670,2670,55,7
8,1692,2880,2880,86,8
7,481,3020,3020,51,9
6,2708,3950,3950,6,10
5,1910,4120,4120,324,11
4,3928,4380,4380,105,12
3,2371,4470,4470,272,13
2,3603,4800,4800,1,14
1,1287,4940,4940,25,15
15,250,690,690,45,1
14,692,1100,1100,53,2
13,604,1420,1420,129,3
12,1654,1660,1660,36,4
11,824,1910,1910,68,5
10,1775,2160,2160,7,6
9,1838,2890,2890,41,7
8,1970,2930,2930,5,8
7,2987,3000,3000,48,9
6,1297,3110,3110,78,10
5,1544,3390,3390,26,11
4,1667,3670,3670,69,12
3,2709,3870,3870,100,13
2,4058,4490,4490,58,14
1,4864,4930,4930,101,15
15,148,660,660,11,1
14,579,730,730,3,2
13,383,950,950,5,3
12,260,980,980,57,4
11,295,1500,1500,6,5
10,1201,1910,1910,74,6
9,1385,2490,2490,98,7
8,71,2570,2570,227,8
7,1046,3130,3130,30,9
6,1906,3310,3310,8,10
5,2391,3330,3330,39,11
4,3060,3610,3610,7,12
3,1206,4300,4300,159,13
2,1203,4730,4730,165,14
1,1114,4740,4740,251,15
15,760,850,850,1,1
14,1493,1700,1700,95,2
13,552,1750,1750,127,3
12,891,1970,1970,11,4
11,1084,2200,2200,23,5
10,499,2330,2330,37,6
9,1072,3330,3330,145,7
8,3244,3710,3710,30,8
7,868,3950,3950,77,9
6,3321,4090,4090,62,10
5,4263,4300,4300,85,11
4,2173,4570,4570,94,12
3,1589,4620,4620,125,13
2,4257,4740,4740,131,14
1,4219,4970,4970,315,15
15,491,590,590,52,1
14,985,1020,1020,14,2
13,883,1070,1070,33,3
12,1094,2230,2230,37,4
11,366,2270,2270,47,5
10,610,2840,2840,1,6
9,684,3530,3530,101,7
8,3221,3870,3870,82,8
7,569,4080,4080,187,9
6,24,4150,4150,65,10
5,3799,4650,4650,14,11
4,256,4660,4660,317,12
3,1578,4700,4700,81,13
2,3505,4770,4770,152,14
1,110,4830,4830,22,15
15,521,700,700,8,1
14,911,1190,1190,70,2
13,652,1410,1410,88,3
12,1457,1610,1610,26,4
11,15,1720,1720,20,5
10,1732,1900,1900,42,6
9,572,2320,2320,39,7
8,2123,3220,3220,99,8
7,2691,3450,3450,130,9
6,2142,3500,3500,3,10
5,3564,3800,3800,52,11
4,2394,3810,3810,48,12
3,294,4110,4110,230,13
2,3689,4530,4530,85,14
1,678,4730,4730,173,15
15,520,540,540,2,1
14,242,1420,1420,30,2
13,956,1600,1600,1,3
12,700,2220,2220,129,4
11,1598,2480,2480,43,5
10,2238,2650,2650,58,6
9,984,2750,2750,100,7
8,306,2990,2990,67,8
7,1350,3150,3150,161,9
6,1547,3230,3230,160,10
5,878,3320,3320,58,11
4,2606,3470,3470,127,12
3,3445,3910,3910,23,13
2,2529,4560,4560,74,14
1,996,4770,4770,225,15
15,354,700,700,10,1
14,221,860,860,15,2
13,872,1140,1140,6,3
12,810,1270,1270,1,4
11,17,1830,1830,20,5
10,265,2450,2450,440,6
9,2550,3020,3020,188,7
8,2006,3070,3070,207,8
7,2369,3080,3080,34,9
6,1562,3170,3170,27,10
5,2801,3210,3210,28,11
4,1920,3370,3370,58,12
3,3195,3650,3650,4,13
2,262,4600,4600,7,14
1,4155,4680,4680,2,15
15,174,610,610,10,1
14,292,640,640,33,2
13,483,700,700,3,3
12,719,750,750,11,4
11,369,1060,1060,14,5
10,321,1490,1490,36,6
9,1577,1800,1800,59,7
8,862,2030,2030,55,8
7,2109,2340,2340,126,9
6,712,2520,2520,36,10
5,1237,2820,2820,132,11
4,227,3530,3530,126,12
3,1965,3830,3830,129,13
2,3248,4170,4170,90,14
1,1860,4630,4630,79,15
15,251,770,770,11,1
14,314,910,910,9,2
13,316,990,990,170,3
12,166,1050,1050,1,4
11,840,1060,1060,2,5
10,402,1620,1620,20,6
9,615,2390,2390,89,7
8,2103,2400,2400,2,8
7,750,2410,2410,100,9
6,1060,2550,2550,43,10
5,1885,2570,2570,83,11
4,2555,2580,2580,21,12
3,2552,3300,3300,11,13
2,2259,3680,3680,155,14
1,2056,4230,4230,52,15
15,124,540,540,1,1
14,597,740,740,28,2
13,304,850,850,1,3
12,984,1310,1310,23,4
11,829,1700,1700,40,5
10,1325,2010,2010,112,6
9,1315,2050,2050,47,7
8,2357,2650,2650,25,8
7,2445,3190,3190,57,9
6,33,3300,3300,144,10
5,3005,3340,3340,53,11
4,1688,3720,3720,374,12
3,4228,4370,4370,32,13
2,829,4400,4400,121,14
1,4395,4950,4950,111,15
15,262,570,570,5,1
14,56,820,820,73,2
13,992,1290,1290,9,3
12,1376,1450,1450,7,4
11,252,1470,1470,79,5
10,1282,1840,1840,53,6
9,1418,1890,1890,24,7
8,749,2000,2000,23,8
7,1988,2280,2280,257,9
6,1873,2310,2310,108,10
5,2405,3010,3010,14,11
4,3463,3580,3580,48,12
3,327,3790,3790,18,13
2,12,3990,3990,25,14
1,2357,4810,4810,5,15
15,389,770,770,2,1
14,1009,1030,1030,8,2
13,728,1230,1230,13,3
12,677,1730,1730,9,4
11,1399,1780,1780,7,5
10,1018,1910,1910,22,6
9,534,2100,2100,55,7
8,463,2250,2250,7,8
7,1321,2300,2300,456,9
6,2625,2710,2710,62,10
5,2207,2720,2720,34,11
4,339,3580,3580,133,12
3,4035,4110,4110,146,13
2,3360,4540,4540,23,14
1,4019,4780,4780,116,15
15,254,970,970,44,1
14,76,1220,1220,13,2
13,86,1470,1470,16,3
12,89,1510,1510,26,4
11,1471,1560,1560,24,5
10,569,1700,1700,104,6
9,1464,1740,1740,46,7
8,1490,1790,1790,2,8
7,18,1950,1950,13,9
6,2160,3250,3250,17,10
5,737,3650,3650,421,11
4,2310,4080,4080,28,12
3,537,4450,4450,338,13
2,149,4480,4480,12,14
1,802,4690,4690,26,15
15,271,590,590,20,1
14,179,600,600,35,2
13,853,1280,1280,1,3
12,302,1630,1630,28,4
11,1050,1720,1720,64,5
10,811,1940,1940,43,6
9,244,2020,2020,19,7
8,1101,2290,2290,36,8
7,1012,2350,2350,72,9
6,1353,2390,2390,25,10
5,249,2470,2470,219,11
4,2553,3460,3460,100,12
3,908,3510,3510,110,13
2,449,4030,4030,8,14
1,3965,4770,4770,92,15
15,81,630,630,3,1
14,254,780,780,40,2
13,314,870,870,7,3
12,607,890,890,7,4
11,1041,1140,1140,5,5
10,174,1860,1860,59,6
9,1567,1900,1900,115,7
8,1609,2130,2130,168,8
7,243,2660,2660,105,9
6,2884,2990,2990,37,10
5,129,3560,3560,3,11
4,3152,3720,3720,32,12
3,2162,4160,4160,139,13
2,1029,4270,4270,24,14
1,2948,4420,4420,256,15
15,289,500,500,18,1
14,324,550,550,14,2
13,499,590,590,55,3
12,141,680,680,21,4
11,60,780,780,1,5
10,1362,1790,1790,158,6
9,376,1880,1880,33,7
8,838,1940,1940,6,8
7,317,1950,1950,77,9
6,1467,2570,2570,13,10
5,1385,2580,2580,64,11
4,2583,2670,2670,35,12
3,3634,4310,4310,50,13
2,1165,4640,4640,23,14
1,204,4840,4840,42,15
15,153,590,590,17,1
14,740,1020,1020,23,2
13,894,1160,1160,7,3
12,158,1480,1480,2,4
11,1246,1660,1660,16,5
10,1430,1730,1730,144,6
9,1043,1950,1950,23,7
8,1171,2340,2340,141,8
7,1752,2390,2390,107,9
6,3013,3530,3530,149,10
5,354,3550,3550,6,11
4,3040,4050,4050,51,12
3,3587,4110,4110,32,13
2,1420,4410,4410,70,14
1,4651,4770,4770,268,15
15,362,530,530,4,1
14,750,1520,1520,57,2
13,849,1710,1710,27,3
12,1013,1850,1850,7,4
11,1665,1910,1910,96,5
10,1627,1980,1980,10,6
9,891,2050,2050,6,7
8,1476,2560,2560,4,8
7,2765,3400,3400,119,9
6,414,3490,3490,68,10
5,3033,3520,3520,176,11
4,1379,3580,3580,137,12
3,3373,3610,3610,23,13
2,2331,3970,3970,109,14
1,1170,4560,4560,482,15
15,479,840,840,19,1
14,375,1150,1150,22,2
13,238,1340,1340,57,3
12,1305,1710,1710,56,4
11,1096,2280,2280,45,5
10,1795,2470,2470,20,6
9,58,2850,2850,101,7
8,1219,3030,3030,191,8
7,3112,3390,3390,12,9
6,2950,4230,4230,423,10
5,209,4240,4240,12,11
4,2836,4290,4290,27,12
3,1286,4410,4410,68,13
2,2009,4890,4890,64,14
1,3859,4980,4980,110,15
15,90,500,500,16,1
14,20,680,680,5,2
13,442,770,770,66,3
12,290,1070,1070,12,4
11,933,1260,1260,16,5
10,1212,1380,1380,58,6
9,2082,2350,2350,55,7
8,1512,2480,2480,27,8
7,1988,2880,2880,6,9
6,2179,3360,3360,149,10
5,2744,3610,3610,7,11
4,1457,3890,3890,145,12
3,605,4370,4370,327,13
2,2281,4790,4790,59,14
1,4836,4920,4920,35,15
15,759,1280,1280,50,1
14,647,2180,2180,109,2
13,1117,2320,2320,9,3
12,341,2460,2460,33,4
11,2191,2480,2480,2,5
10,2376,2800,2800,1,6
9,2932,3090,3090,35,7
8,249,3250,3250,149,8
7,3469,3580,3580,9,9
6,3178,3740,3740,56,10
5,3178,3790,3790,134,11
4,3806,4080,4080,88,12
3,1432,4170,4170,303,13
2,3096,4310,4310,88,14
1,2886,4480,4480,335,15
15,153,510,510,9,1
14,25,520,520,57,2
13,17,830,830,17,3
12,146,860,860,3,4
11,1018,1040,1040,25,5
10,1713,1910,1910,88,6
9,180,2200,2200,63,7
8,86,2390,2390,54,8
7,800,2770,2770,110,9
6,2711,2860,2860,33,10
5,2377,3040,3040,62,11
4,1980,3300,3300,157,12
3,2338,4010,4010,6,13
2,2976,4480,4480,43,14
1,3874,4880,4880,11,15
15,439,1150,1150,20,1
14,287,1180,1180,70,2
13,34,1230,1230,23,3
12,627,1270,1270,3,4
11,1003,1440,1440,33,5
10,793,1650,1650,24,6
9,1337,1730,1730,16,7
8,19,2320,2320,18,8
7,1129,2500,2500,140,9
6,1238,2510,2510,45,10
5,1495,3630,3630,360,11
4,3485,3770,3770,53,12
3,3778,4100,4100,10,13
2,671,4200,4200,91,14
1,1370,4540,4540,194,15
15,569,580,580,54,1
14,467,590,590,19,2
13,34,960,960,4,3
12,61,1170,1170,9,4
11,188,1210,1210,6,5
10,735,1590,1590,73,6
9,74,1680,1680,22,7
8,1735,2180,2180,82,8
7,1781,2240,2240,82,9
6,830,2600,2600,75,10
5,784,3490,3490,113,11
4,2788,3510,3510,68,12
3,2372,3840,3840,150,13
2,2100,4130,4130,34,14
1,1277,4210,4210,5,15
15,21,620,620,41,1
14,648,900,900,55,2
13,501,1680,1680,161,3
12,2137,2270,2270,50,4
11,1316,2320,2320,56,5
10,1412,2440,2440,33,6
9,1927,2510,2510,88,7
8,627,2560,2560,84,8
7,1509,2900,2900,2,9
6,2042,2960,2960,34,10
5,2721,3060,3060,18,11
4,53,3070,3070,33,12
3,930,3240,3240,4,13
2,3101,3340,3340,13,14
1,3678,4940,4940,108,15
15,208,610,610,65,1
14,109,1060,1060,1,2
13,103,1690,1690,67,3
12,1598,1890,1890,147,4
11,1629,2310,2310,49,5
10,1994,2460,2460,84,6
9,1493,2540,2540,82,7
8,2417,2780,2780,72,8
7,2643,2920,2920,1,9
6,866,3000,3000,90,10
5,384,3300,3300,9,11
4,323,3570,3570,35,12
3,1433,3640,3640,7,13
2,2630,3940,3940,25,14
1,1692,4150,4150,69,15
15,218,800,800,96,1
14,365,980,980,39,2
13,308,1370,1370,26,3
12,677,1520,1520,60,4
11,25,1530,1530,47,5
10,1642,1680,1680,50,6
9,195,1960,1960,22,7
8,78,2390,2390,2,8
7,2375,2900,2900,27,9
6,2718,3100,3100,72,10
5,1664,3730,3730,111,11
4,275,3840,3840,150,12
3,3014,4470,4470,2,13
2,2807,4690,4690,3,14
1,2165,4950,4950,65,15
15,510,540,540,12,1
14,681,900,900,9,2
13,73,1030,1030,35,3
12,901,1040,1040,1,4
11,1226,1260,1260,2,5
10,1098,1890,1890,23,6
9,1930,2160,2160,73,7
8,173,2660,2660,148,8
7,371,3270,3270,237,9
6,1708,3470,3470,22,10
5,946,3580,3580,37,11
4,318,4650,4650,20,12
3,1131,4710,4710,199,13
2,250,4960,4960,307,14
1,2734,4970,4970,186,15
15,700,870,870,152,1
14,880,960,960,4,2
13,1125,1360,1360,8,3
12,1074,1380,1380,34,4
11,1212,1460,1460,16,5
10,523,1540,1540,25,6
9,1626,2000,2000,18,7
8,1515,2340,2340,103,8
7,1226,2500,2500,51,9
6,203,2730,2730,6,10
5,1711,3140,3140,187,11
4,1605,3870,3870,43,12
3,3028,4040,4040,11,13
2,1398,4190,4190,81,14
1,1532,4880,4880,6,15
15,726,1040,1040,5,1
14,737,1050,1050,19,2
13,318,1470,1470,3,3
12,85,1730,1730,15,4
11,539,1880,1880,199,5
10,684,2000,2000,76,6
9,1184,2180,2180,50,7
8,522,2270,2270,158,8
7,1188,2320,2320,36,9
6,838,2330,2330,103,10
5,2358,2630,2630,1,11
4,1748,2800,2800,87,12
3,1547,3180,3180,94,13
2,1351,3940,3940,59,14
1,779,4760,4760,4,15
15,268,630,630,1,1
14,287,940,940,10,2
13,784,960,960,25,3
12,715,1180,1180,24,4
11,1373,1580,1580,51,5
10,39,1880,1880,33,6
9,1673,1920,1920,50,7
8,1340,1940,1940,78,8
7,170,1950,1950,7,9
6,1792,2210,2210,62,10
5,1810,2840,2840,240,11
4,1853,3260,3260,98,12
3,391,4240,4240,25,13
2,3950,4360,4360,328,14
1,926,4620,4620,16,15
15,445,510,510,15,1
14,509,780,780,8,2
13,507,870,870,44,3
12,8,1490,1490,102,4
11,444,1740,1740,34,5
10,1367,1810,1810,14,6
9,1018,2090,2090,15,7
8,2325,2660,2660,22,8
7,221,2800,2800,45,9
6,333,3370,3370,80,10
5,2464,3460,3460,4,11
4,1349,3910,3910,333,12
3,2455,4110,4110,31,13
2,277,4740,4740,266,14
1,4027,4900,4900,70,15
15,547,670,670,37,1
14,921,1050,1050,15,2
13,947,1080,1080,22,3
12,905,1110,1110,60,4
11,716,1170,1170,27,5
10,166,2110,2110,25,6
9,2153,2160,2160,36,7
8,2142,2530,2530,27,8
7,1366,2810,2810,80,9
6,2943,2990,2990,30,10
5,1711,3250,3250,37,11
4,423,3980,3980,239,12
3,3242,4160,4160,97,13
2,715,4170,4170,159,14
1,1557,4210,4210,125,15
15,619,660,660,26,1
14,629,880,880,58,2
13,1095,1170,1170,20,3
12,9,1460,1460,62,4
11,1263,1610,1610,2,5
10,91,1660,1660,58,6
9,1412,1750,1750,27,7
8,1823,1880,1880,4,8
7,1880,2160,2160,24,9
6,1408,3050,3050,106,10
5,685,3820,3820,177,11
4,1719,3920,3920,35,12
3,214,4080,4080,280,13
2,2351,4420,4420,7,14
1,362,4650,4650,73,15
15,633,650,650,18,1
14,236,900,900,4,2
13,242,910,910,29,3
12,923,1760,1760,28,4
11,1968,2500,2500,57,5
10,1068,2750,2750,144,6
9,2521,3050,3050,107,7
8,379,3390,3390,56,8
7,1819,3440,3440,7,9
6,3088,3910,3910,92,10
5,3446,4400,4400,289,11
4,4245,4420,4420,61,12
3,3789,4630,4630,9,13
2,4572,4790,4790,158,14
1,838,4900,4900,295,15
15,590,1000,1000,5,1
14,17,1340,1340,27,2
13,317,1440,1440,19,3
12,1489,1680,1680,129,4
11,1154,1730,1730,77,5
10,947,2490,2490,49,6
9,542,2670,2670,27,7
8,965,3030,3030,86,8
7,313,3200,3200,95,9
6,141,3660,3660,136,10
5,3781,3810,3810,272,11
4,105,4540,4540,50,12
3,1715,4570,4570,69,13
2,4142,4840,4840,85,14
1,4168,4880,4880,37,15
15,243,660,660,8,1
14,105,990,990,95,2
13,849,1240,1240,40,3
12,89,1740,1740,31,4
11,165,2340,2340,39,5
10,1389,2400,2400,1,6
9,238,2510,2510,35,7
8,1722,2780,2780,124,8
7,2396,3400,3400,70,9
6,3540,4020,4020,132,10
5,2975,4170,4170,30,11
4,1851,4660,4660,44,12
3,1772,4710,4710,107,13
2,746,4870,4870,38,14
1,604,4910,4910,353,15
15,43,790,790,1,1
14,352,1150,1150,10,2
13,812,1180,1180,39,3
12,1187,1450,1450,54,4
11,228,1540,1540,13,5
10,478,1640,1640,162,6
9,1591,1880,1880,15,7
8,909,3060,3060,1,8
7,323,3210,3210,56,9
6,3586,3790,3790,71,10
5,2558,4120,4120,246,11
4,2497,4290,4290,224,12
3,3714,4500,4500,253,13
2,2555,4730,4730,23,14
1,3098,4830,4830,1,15
15,127,610,610,12,1
14,24,760,760,8,2
13,382,1370,1370,116,3
12,1044,1400,1400,36,4
11,326,1940,1940,31,5
10,603,1960,1960,76,6
9,748,2010,2010,63,7
8,1721,2040,2040,9,8
7,1921,2050,2050,84,9
6,2527,2930,2930,97,10
5,820,2950,2950,35,11
4,1718,4300,4300,136,12
3,2769,4450,4450,9,13
2,2567,4760,4760,61,14
1,2521,4840,4840,207,15
15,146,520,520,19,1
14,257,590,590,6,2
13,50,750,750,40,3
12,533,840,840,16,4
11,100,980,980,46,5
10,568,1000,1000,17,6
9,931,1080,1080,3,7
8,931,1500,1500,34,8
7,339,1640,1640,18,9
6,403,2100,2100,79,10
5,457,2440,2440,87,11
4,1661,2450,2450,12,12
3,1874,3460,3460,233,13
2,95,3790,3790,28,14
1,3192,4730,4730,141,15
15,334,840,840,103,1
14,728,1220,1220,97,2
13,1074,1460,1460,12,3
12,457,1660,1660,18,4
11,1228,1670,1670,97,5
10,1087,2470,2470,25,6
9,832,2580,2580,109,7
8,673,3110,3110,12,8
7,2419,3340,3340,63,9
6,235,3380,3380,25,10
5,2364,3720,3720,23,11
4,3256,3840,3840,54,12
3,4003,4150,4150,22,13
2,2016,4250,4250,82,14
1,3992,4670,4670,2,15
15,29,630,630,24,1
14,823,960,960,51,2
13,780,970,970,3,3
12,701,1040,1040,20,4
11,917,1140,1140,9,5
10,564,1170,1170,12,6
9,230,1180,1180,3,7
8,568,1350,1350,8,8
7,953,1400,1400,76,9
6,110,1490,1490,62,10
5,1251,1970,1970,8,11
4,500,2250,2250,4,12
3,2924,3000,3000,125,13
2,164,4060,4060,234,14
1,471,4920,4920,309,15
15,525,820,820,1,1
14,1069,1190,1190,18,2
13,940,1360,1360,78,3
12,255,1420,1420,21,4
11,52,1620,1620,10,5
10,56,2120,2120,76,6
9,845,2150,2150,3,7
8,268,2420,2420,74,8
7,1892,3210,3210,396,9
6,1512,3250,3250,11,10
5,560,3980,3980,65,11
4,1714,3990,3990,186,12
3,3485,4190,4190,6,13
2,2531,4350,4350,94,14
1,1979,4380,4380,136,15
