{
    "data": {
        "tickUnitInNs": 100000,
        "tasksets": [{
            "id": 0,
            "tasks": [
                {
                    "phase": 0,
                    "period": 0,
                    "arrivalType": "periodic",
                    "name": "IDLE",
                    "id": 0,
                    "type": "IDLE",
                    "deadline": 0,
                    "wcet": 0,
                    "priority": 0
                },
                {
                    "phase": 424,
                    "period": 620,
                    "arrivalType": "periodic",
                    "name": "APP1",
                    "id": 4,
                    "type": "APP",
                    "deadline": 620,
                    "wcet": 53,
                    "priority": 4
                },
                {
                    "phase": 505,
                    "period": 750,
                    "arrivalType": "periodic",
                    "name": "APP2",
                    "id": 2,
                    "type": "APP",
                    "deadline": 750,
                    "wcet": 285,
                    "priority": 2
                },
                {
                    "phase": 330,
                    "period": 420,
                    "arrivalType": "periodic",
                    "name": "APP3",
                    "id": 5,
                    "type": "APP",
                    "deadline": 420,
                    "wcet": 66,
                    "priority": 5
                },
                {
                    "phase": 490,
                    "period": 670,
                    "arrivalType": "periodic",
                    "name": "APP4",
                    "id": 3,
                    "type": "APP",
                    "deadline": 670,
                    "wcet": 55,
                    "priority": 3
                },
                {
                    "phase": 340,
                    "period": 920,
                    "arrivalType": "periodic",
                    "name": "APP5",
                    "id": 1,
                    "type": "APP",
                    "deadline": 920,
                    "wcet": 67,
                    "priority": 1
                }
            ]
        }]
    },
    "dataType": "single taskset",
    "formatVersion": "15"
}